<svg xmlns="http://www.w3.org/2000/svg" width="76" height="76" viewBox="0 0 76 76">
  <g id="Gruppe_238" data-name="Gruppe 238" transform="translate(-975 -1770)">
    <g id="Icon_Kreation_Design" data-name="Icon_Kreation&amp;Design" transform="translate(6 139.002)">
      <path id="Shape_202" data-name="Shape 202" d="M504.42,285.426h10.928" transform="translate(523.058 1383.476)" fill="none" stroke="#fff" stroke-linecap="round" stroke-linejoin="round" stroke-width="2"/>
      <path id="Shape_203" data-name="Shape 203" d="M503.42,287.712l7.286-7.286" transform="translate(521.216 1365.459)" fill="none" stroke="#fff" stroke-linecap="round" stroke-linejoin="round" stroke-width="2"/>
      <path id="Shape_204" data-name="Shape 204" d="M500.42,289.354V278.426" transform="translate(508.484 1358.572)" fill="none" stroke="#fff" stroke-linecap="round" stroke-linejoin="round" stroke-width="2"/>
      <path id="Shape_205" data-name="Shape 205" d="M502.706,287.712l-7.286-7.286" transform="translate(490.467 1365.459)" fill="none" stroke="#fff" stroke-linecap="round" stroke-linejoin="round" stroke-width="2"/>
      <path id="Shape_206" data-name="Shape 206" d="M504.348,285.426H493.42" transform="translate(485.982 1383.476)" fill="none" stroke="#fff" stroke-linecap="round" stroke-linejoin="round" stroke-width="2"/>
      <path id="Shape_207" data-name="Shape 207" d="M500.42,288.426v10.928" transform="translate(508.484 1398.61)" fill="none" stroke="#fff" stroke-linecap="round" stroke-linejoin="round" stroke-width="2"/>
      <path id="Shape_208" data-name="Shape 208" d="M503.42,287.426l7.286,7.286" transform="translate(521.216 1394.366)" fill="none" stroke="#fff" stroke-linecap="round" stroke-linejoin="round" stroke-width="2"/>
      <path id="Shape_135" data-name="Shape 135" d="M388.434,265.909l28.8-28.619" transform="translate(587.566 1434.507)" fill="none" stroke="#fff" stroke-linecap="round" stroke-linejoin="round" stroke-width="2"/>
      <path id="Shape_355" data-name="Shape 355" d="M431.14,545.7l-7.635-7.957a4.51,4.51,0,0,1-.846-5.21h0a4.515,4.515,0,0,1,7.227-1.172l1.246,1.244,1.246-1.244a4.517,4.517,0,0,1,7.229,1.172h0a4.515,4.515,0,0,1-.846,5.21Z" transform="matrix(0.643, 0.766, -0.766, 0.643, 1145.313, 991.06)" fill="none" stroke="#ffff20" stroke-linecap="round" stroke-linejoin="round" stroke-width="2"/>
    </g>
    <rect id="Rechteck_153" data-name="Rechteck 153" width="76" height="76" transform="translate(975 1770)" fill="none"/>
  </g>
</svg>
