<svg xmlns="http://www.w3.org/2000/svg" width="322" height="142" viewBox="0 0 322 142">
  <g id="Logo" transform="translate(-799)">
    <rect id="Schutzraum" width="322" height="142" transform="translate(799)" fill="none"/>
    <g id="rajk" transform="translate(906 41)">
      <path id="k" d="M0,0V46.161H10.122v-9.25l2.853-2.853,7.088,12.1H31.655L19.521,27.03,30.9,13.666H18.771l-7.629,9.49-1.021,1.351V0Z" transform="translate(68.258 2.892)" fill="#fff"/>
      <path id="j" d="M-906-24.473h10.152l-.005,32.527s0,10.218-10.147,10.218Zm0-11.466A5.05,5.05,0,0,1-900.963-41a5.05,5.05,0,0,1,5.036,5.062,5.049,5.049,0,0,1-5.036,5.062A5.05,5.05,0,0,1-906-35.939Z" transform="translate(960.023 41)" fill="#fff"/>
      <path id="a" d="M-3.141-5.649H6.933V-28.193a10.35,10.35,0,0,0-3.647-7.544q-3.6-3.033-9.822-3.033a16.85,16.85,0,0,0-10.226,2.94,9.073,9.073,0,0,0-3.966,6.837h10.132q.386-2.747,3.55-2.749,3.874,0,3.874,4.5v1.72H-6.295q-7.449,0-11.353,2.7a9.087,9.087,0,0,0-3.9,7.988,8.842,8.842,0,0,0,3.214,6.983,11.531,11.531,0,0,0,7.809,2.778A9.475,9.475,0,0,0-3.141-8.115Zm-.031-9.274a5.081,5.081,0,0,1-1.787,1.832,5.645,5.645,0,0,1-3.139.811,3.368,3.368,0,0,1-2.372-.856,2.894,2.894,0,0,1-.931-2.237q0-4.744,5.286-4.745h2.943Z" transform="translate(42.976 54.727)" fill="#fff"/>
      <path id="r" d="M16.249,9.521l3.239.233V.3A10.1,10.1,0,0,0,16.94,0Q12.374,0,9.822,4.775L9.491.6H0V33.1H10.122V12.525q1.352-3,6.127-3" transform="translate(0 15.956)" fill="#fff"/>
    </g>
  </g>
</svg>
