<!--?xml version="1.0" encoding="utf-8"?-->
<!-- Generator: Adobe Illustrator 25.0.1, SVG Export Plug-In . SVG Version: 6.00 Build 0)  -->
<svg version="1.1" id="Ebene_1" xmlns="http://www.w3.org/2000/svg" xmlns:xlink="http://www.w3.org/1999/xlink" x="0px" y="0px" viewBox="0 0 73.13 76" style="" xml:space="preserve">
<style type="text/css">
	.st0{fill:none;stroke:#FFFFFF;stroke-width:2;stroke-linecap:round;stroke-linejoin:round;}
	.st1{fill:none;stroke:#FFFF20;stroke-width:2;stroke-linecap:round;stroke-linejoin:round;}
	.st2{fill:none;}
</style>
<g id="Gruppe_239" transform="translate(-975 -1369)">
	<g id="Icon_Beratung_Steuerung" transform="translate(976 1379)">
		<path id="Vereinigungsmenge_1" class="st0 WfCdbVqV_0" d="M59.59,51.46H48.05c-0.58,0-1.05-0.47-1.05-1.05v-6.17H28.63L18.22,54.66V44.25H2.6
			c-1.44,0-2.6-1.16-2.6-2.6V2.61c0-1.44,1.16-2.6,2.6-2.6h54.66c1.44,0,2.6,1.16,2.6,2.6v31.02h10.22c0.58,0,1.05,0.47,1.05,1.05
			v15.74c0,0.58-0.47,1.05-1.05,1.05h-6.29v4.2L59.59,51.46z"></path>
		<g id="messages-bubble-square-heart">
			<path id="Shape_354" class="st0 WfCdbVqV_1" d="M59.86,41.64c0,1.44-1.16,2.6-2.6,2.6H28.63L18.22,54.66V44.25H2.6c-1.44,0-2.6-1.16-2.6-2.6
				V2.61c0-1.44,1.16-2.6,2.6-2.6h54.65c1.44,0,2.6,1.16,2.6,2.6V41.64z"></path>
			<path id="Shape_355" class="st1 WfCdbVqV_2" d="M29.93,32.53L19.15,21.3c-1.94-1.94-2.42-4.9-1.2-7.36l0,0c1.58-3.15,5.41-4.42,8.56-2.84
				c0.61,0.31,1.17,0.71,1.65,1.19l1.76,1.76l1.76-1.76c2.49-2.49,6.53-2.49,9.02,0.01c0.48,0.48,0.88,1.04,1.19,1.65l0,0
				c1.23,2.45,0.74,5.42-1.2,7.36L29.93,32.53z"></path>
		</g>
	</g>
	<path id="Rechteck_150" class="st2 WfCdbVqV_3" width="73" height="76" d="M975 1369 L1048 1369 L1048 1445 L975 1445 Z"></path>
</g>
<style data-made-with="vivus-instant">.WfCdbVqV_0{stroke-dasharray:262 264;stroke-dashoffset:263;animation:WfCdbVqV_draw_0 10200ms linear 0ms infinite,WfCdbVqV_fade 10200ms linear 0ms infinite;}.WfCdbVqV_1{stroke-dasharray:219 221;stroke-dashoffset:220;animation:WfCdbVqV_draw_1 10200ms linear 0ms infinite,WfCdbVqV_fade 10200ms linear 0ms infinite;}.WfCdbVqV_2{stroke-dasharray:77 79;stroke-dashoffset:78;animation:WfCdbVqV_draw_2 10200ms linear 0ms infinite,WfCdbVqV_fade 10200ms linear 0ms infinite;}.WfCdbVqV_3{stroke-dasharray:298 300;stroke-dashoffset:299;animation:WfCdbVqV_draw_3 10200ms linear 0ms infinite,WfCdbVqV_fade 10200ms linear 0ms infinite;}@keyframes WfCdbVqV_draw{100%{stroke-dashoffset:0;}}@keyframes WfCdbVqV_fade{0%{stroke-opacity:1;}98.03921568627452%{stroke-opacity:1;}100%{stroke-opacity:0;}}@keyframes WfCdbVqV_draw_0{0%{stroke-dashoffset: 263}13.071895424836603%{ stroke-dashoffset: 0;}100%{ stroke-dashoffset: 0;}}@keyframes WfCdbVqV_draw_1{2.178649237472767%{stroke-dashoffset: 220}15.25054466230937%{ stroke-dashoffset: 0;}100%{ stroke-dashoffset: 0;}}@keyframes WfCdbVqV_draw_2{4.357298474945534%{stroke-dashoffset: 78}17.429193899782135%{ stroke-dashoffset: 0;}100%{ stroke-dashoffset: 0;}}@keyframes WfCdbVqV_draw_3{6.5359477124183%{stroke-dashoffset: 299}19.607843137254903%{ stroke-dashoffset: 0;}100%{ stroke-dashoffset: 0;}}</style></svg>
